…
## Histogram of the total number of steps taken each day

We see the data is fairly tidy, we can start our analysis without doing anymore pre processing. But one column we need to add is the number of steps for each day.
This number of steps is the data we will work with here.

```r
DayData <- ValidData %>%
        group_by(date) %>%
        summarise_each(funs(sum(steps))) %>%
        select(date, steps) %>%
        print
```

```
## # A tibble: 53 x 2
##    date       steps
##    <chr>      <int>
##  1 2012-10-02   126
##  2 2012-10-03 11352
##  3 2012-10-04 12116
##  4 2012-10-05 13294
##  5 2012-10-06 15420
##  6 2012-10-07 11015
##  7 2012-10-09 12811
##  8 2012-10-10  9900
##  9 2012-10-11 10304
## 10 2012-10-12 17382
## # … with 43 more rows
```
…
## Time series plot of the average number of steps taken
To find the average number of steps for every interval, we will summarise the data grouped by intervals and then find their individual group means.


```r
IntervalData <- ValidData %>%
        group_by(interval) %>%
        summarise_each(funs(mean(steps))) %>%
        select(interval, steps) %>%
        print
```

```
## # A tibble: 288 x 2
##    interval  steps
##       <int>  <dbl>
##  1        0 1.72  
##  2        5 0.340 
##  3       10 0.132 
##  4       15 0.151 
##  5       20 0.0755
##  6       25 2.09  
##  7       30 0.528 
##  8       35 0.868 
##  9       40 0     
## 10       45 1.47  
## # … with 278 more rows
```
…
## Histogram of the total number of steps taken each day after missing values are imputed


```r
NewActivityData <- tbl_df(new_activity)

DayDataNew <- NewActivityData %>%
        group_by(date) %>%
        summarise_each(funs(sum(steps))) %>%
        select(date, steps) %>%
        print
```

```
## # A tibble: 61 x 2
##    date        steps
##    <chr>       <dbl>
##  1 2012-10-01 10766.
##  2 2012-10-02   126 
##  3 2012-10-03 11352 
##  4 2012-10-04 12116 
##  5 2012-10-05 13294 
##  6 2012-10-06 15420 
##  7 2012-10-07 11015 
##  8 2012-10-08 10766.
##  9 2012-10-09 12811 
## 10 2012-10-10  9900 
## # … with 51 more rows
```
…
